Nyamisi Peter - Extracting values from raster image using terra package in R
…
pemba.df = spatSample(pemba |> select(chl), 
                  size = 200, 
                  method = "random",
                  na.rm = T, 
                  # as.points = T,
                  as.df = T,
                  values = T,
                  xy = T) |> 
  rename(lon = x, lat = y) |> 
  as_tibble()

pemba.df

# A tibble: 200 × 3
     lon   lat   chl
   <dbl> <dbl> <dbl>
 1  39.4 -4.90 0.145
 2  39.4 -5.49 0.135
 3  39.5 -5.30 0.149
 4  39.5 -5.67 0.125
 5  39.5 -5.25 0.138
 6  39.2 -5.31 0.152
 7  39.4 -5.02 0.118
 8  39.6 -5.67 0.143
 9  39.3 -5.54 0.169
10  39.3 -5.66 0.175
# ℹ 190 more rows
…
