Nyamisi Peter - Machine Learning (ML) using Regression Algorithm in R
…
require(tidyverse)
require(tidymodels)
require(ranger)
require(palmerpenguins)

Data loading and preprocessing

After loading the packages, load the penguins data (Horst, Hill, and Gorman 2020) and remove all the missing values in the dataset. Name the dataset as penguin.data. The dataset consist of 333 rows and 8 columns

penguin.data = palmerpenguins::penguins %>% 
  drop_na()

penguin.data

# A tibble: 333 × 8
   species island    bill_length_mm bill_depth_mm flipper_length_mm body_mass_g
   <fct>   <fct>              <dbl>         <dbl>             <int>       <int>
 1 Adelie  Torgersen           39.1          18.7               181        3750
 2 Adelie  Torgersen           39.5          17.4               186        3800
 3 Adelie  Torgersen           40.3          18                 195        3250
 4 Adelie  Torgersen           36.7          19.3               193        3450
 5 Adelie  Torgersen           39.3          20.6               190        3650
 6 Adelie  Torgersen           38.9          17.8               181        3625
 7 Adelie  Torgersen           39.2          19.6               195        4675
 8 Adelie  Torgersen           41.1          17.6               182        3200
 9 Adelie  Torgersen           38.6          21.2               191        3800
10 Adelie  Torgersen           34.6          21.1               198        4400
# ℹ 323 more rows
# ℹ 2 more variables: sex <fct>, year <int>
…
In this post we will use four variables from penguins data; which are bill_length_mm, bill_depth_mm, flipper_length_mm and body_mass_g. Use the select() function of dplyr package (Wickham et al. 2022) to select the variables of interest.

penguin.data = penguin.data %>% 
  select(flipper_length_mm, 
         bill_length_mm, 
         bill_depth_mm,
         body_mass_g)

penguin.data

# A tibble: 333 × 4
   flipper_length_mm bill_length_mm bill_depth_mm body_mass_g
               <int>          <dbl>         <dbl>       <int>
 1               181           39.1          18.7        3750
 2               186           39.5          17.4        3800
 3               195           40.3          18          3250
 4               193           36.7          19.3        3450
 5               190           39.3          20.6        3650
 6               181           38.9          17.8        3625
 7               195           39.2          19.6        4675
 8               182           41.1          17.6        3200
 9               191           38.6          21.2        3800
10               198           34.6          21.1        4400
# ℹ 323 more rows
…
split.penguin

<Training/Testing/Total>
<233/100/333>

The training data below with 233 samples will be used to training the model;

train.set = split.penguin %>% 
  training()

train.set

# A tibble: 233 × 4
   flipper_length_mm bill_length_mm bill_depth_mm body_mass_g
               <int>          <dbl>         <dbl>       <int>
 1               230           59.6          17          6050
 2               184           34.4          18.4        3325
 3               215           45.2          15.8        5300
 4               210           49            19.5        3950
 5               202           41.4          18.5        3875
 6               203           51            18.8        4100
 7               212           44.9          13.8        4750
 8               225           51.1          16.5        5250
 9               210           50.8          19          4100
10               211           45.4          14.6        4800
# ℹ 223 more rows

The testing data with 100 observations will be used to test the accuracy of the model

test.set = split.penguin %>% 
  testing()

test.set

# A tibble: 100 × 4
   flipper_length_mm bill_length_mm bill_depth_mm body_mass_g
               <int>          <dbl>         <dbl>       <int>
 1               186           39.5          17.4        3800
 2               195           40.3          18          3250
 3               195           38.7          19          3450
 4               194           46            21.5        4200
 5               189           35.9          19.2        3800
 6               185           38.2          18.1        3950
 7               188           39.5          17.8        3300
 8               186           36            18.5        3100
 9               191           42.3          21.2        4150
10               186           39.6          17.7        3500
# ℹ 90 more rows
…
The summary of the fitted model shows the R-squared value is 0.80. This shows that 80% of our data fits better to the model.

Model Validation

Then, we will evaluate the model’s performance on the testing data using the predict() function of stats package (R Core Team 2022). The model have achieved predictions of body weight of the penguins using the test data set which was not used in data training. The values of the predictions are within the distribution ranges of the response variable.

pred.rf = mod.rf %>% 
  predict(test.set) %>% 
  bind_cols(test.set)

pred.rf

# A tibble: 100 × 5
   .pred flipper_length_mm bill_length_mm bill_depth_mm body_mass_g
   <dbl>             <int>          <dbl>         <dbl>       <int>
 1 3583.               186           39.5          17.4        3800
 2 3833.               195           40.3          18          3250
 3 3931.               195           38.7          19          3450
 4 3980.               194           46            21.5        4200
 5 3709.               189           35.9          19.2        3800
 6 3693.               185           38.2          18.1        3950
 7 3587.               188           39.5          17.8        3300
 8 3509.               186           36            18.5        3100
 9 4040.               191           42.3          21.2        4150
10 3595.               186           39.6          17.7        3500
# ℹ 90 more rows
…
Coefficients:
   (Intercept)  bill_length_mm   bill_depth_mm  
       2704.67           82.83         -123.51  

Model Validation

Then, we will evaluate the model’s performance on the testing data using the predict() function of stats package (R Core Team 2022). Our model has predicted for the body weight values of the penguins.

pred.lm = mod.lm %>% 
  predict(test.set) %>% 
  bind_cols(test.set)

pred.lm

# A tibble: 100 × 5
   .pred flipper_length_mm bill_length_mm bill_depth_mm body_mass_g
   <dbl>             <int>          <dbl>         <dbl>       <int>
 1 3827.               186           39.5          17.4        3800
 2 3819.               195           40.3          18          3250
 3 3563.               195           38.7          19          3450
 4 3859.               194           46            21.5        4200
 5 3307.               189           35.9          19.2        3800
 6 3633.               185           38.2          18.1        3950
 7 3778.               188           39.5          17.8        3300
 8 3401.               186           36            18.5        3100
 9 3590.               191           42.3          21.2        4150
10 3798.               186           39.6          17.7        3500
# ℹ 90 more rows
…
