Nyamisi Peter - Machine Learning (ML) and Artificial Intelligence (AI) using classification Algorithm in R
…
require(tidyverse)
require(tidymodels)
require(palmerpenguins)
require(ranger)

Data

After loading the packages, we will load the penguins data (Horst, Hill, and Gorman 2020) and remove all the missing values in the dataset and equate them as penguin.data. The dataset consist of 333 rows and 8 columns

penguin.data = palmerpenguins::penguins %>% 
  drop_na()

penguin.data

# A tibble: 333 × 8
   species island    bill_length_mm bill_depth_mm flipper_…¹ body_…² sex    year
   <fct>   <fct>              <dbl>         <dbl>      <int>   <int> <fct> <int>
 1 Adelie  Torgersen           39.1          18.7        181    3750 male   2007
 2 Adelie  Torgersen           39.5          17.4        186    3800 fema…  2007
 3 Adelie  Torgersen           40.3          18          195    3250 fema…  2007
 4 Adelie  Torgersen           36.7          19.3        193    3450 fema…  2007
 5 Adelie  Torgersen           39.3          20.6        190    3650 male   2007
 6 Adelie  Torgersen           38.9          17.8        181    3625 fema…  2007
 7 Adelie  Torgersen           39.2          19.6        195    4675 male   2007
 8 Adelie  Torgersen           41.1          17.6        182    3200 fema…  2007
 9 Adelie  Torgersen           38.6          21.2        191    3800 male   2007
10 Adelie  Torgersen           34.6          21.1        198    4400 male   2007
# … with 323 more rows, and abbreviated variable names ¹​flipper_length_mm,
#   ²​body_mass_g
…
split.penguin

<Training/Testing/Total>
<233/100/333>

The training data below with 233 samples will be used for training the model;

train.set = split.penguin %>% 
  training()

train.set

# A tibble: 233 × 3
   species   bill_length_mm bill_depth_mm
   <fct>              <dbl>         <dbl>
 1 Gentoo              51.1          16.3
 2 Adelie              39.6          20.7
 3 Chinstrap           50.1          17.9
 4 Gentoo              46.8          15.4
 5 Gentoo              48.7          15.7
 6 Chinstrap           45.5          17  
 7 Chinstrap           51.3          19.2
 8 Adelie              41.5          18.5
 9 Chinstrap           50.5          18.4
10 Adelie              40.2          17.1
# … with 223 more rows

The testing data with 100 observations will be used to test the accuracy of the model

test.set = split.penguin %>% 
  testing()

test.set

# A tibble: 100 × 3
   species bill_length_mm bill_depth_mm
   <fct>            <dbl>         <dbl>
 1 Adelie            39.1          18.7
 2 Adelie            39.3          20.6
 3 Adelie            38.9          17.8
 4 Adelie            41.1          17.6
 5 Adelie            38.6          21.2
 6 Adelie            34.6          21.1
 7 Adelie            36.6          17.8
 8 Adelie            46            21.5
 9 Adelie            37.8          18.3
10 Adelie            38.8          17.2
# … with 90 more rows
…
Predictions

Then, the test.set data will be used in predictions of the type of the species provided we have the bill length and bill depth. The predicted class and the test dataset will be binded together to see if there is a match or mismatch of the predicted versus the actual species type.

rf.pred = mod %>% 
  predict(test.set) %>% 
  bind_cols(test.set)

rf.pred

# A tibble: 100 × 4
   .pred_class species bill_length_mm bill_depth_mm
   <fct>       <fct>            <dbl>         <dbl>
 1 Adelie      Adelie            39.1          18.7
 2 Adelie      Adelie            39.3          20.6
 3 Adelie      Adelie            38.9          17.8
 4 Adelie      Adelie            41.1          17.6
 5 Adelie      Adelie            38.6          21.2
 6 Adelie      Adelie            34.6          21.1
 7 Adelie      Adelie            36.6          17.8
 8 Chinstrap   Adelie            46            21.5
 9 Adelie      Adelie            37.8          18.3
10 Adelie      Adelie            38.8          17.2
# … with 90 more rows
…
Then, we need to calculate the probability of each observation be accurate for every species. We will use predict() function of *stats package of R (R Core Team 2022).

rf.preda = mod %>% 
  predict(test.set, 
          type = "prob") %>% 
  bind_cols(test.set)

rf.preda

# A tibble: 100 × 6
   .pred_Adelie .pred_Chinstrap .pred_Gentoo species bill_length_mm bill_depth…¹
          <dbl>           <dbl>        <dbl> <fct>            <dbl>        <dbl>
 1        0.991         0.00917      0       Adelie            39.1         18.7
 2        0.988         0.0118       0       Adelie            39.3         20.6
 3        0.997         0.00266      0       Adelie            38.9         17.8
 4        0.999         0.00111      0       Adelie            41.1         17.6
 5        0.985         0.0152       0       Adelie            38.6         21.2
 6        0.985         0.0152       0       Adelie            34.6         21.1
 7        0.997         0.00266      0       Adelie            36.6         17.8
 8        0.331         0.667        0.00138 Adelie            46           21.5
 9        0.996         0.00375      0       Adelie            37.8         18.3
10        0.997         0.00152      0.00102 Adelie            38.8         17.2
# … with 90 more rows, and abbreviated variable name ¹​bill_depth_mm
…
